{
    "name": "pre-cache",
    "description": "Builds and processes all application assets for production.",
    "flags": [
      {
        "name": "env",
        "description": "Sets the build environment.",
        "type": "string"
      }
    ]
  }
  